Tidy Tuesday
…
Its interesting that the top five cities in California for which there are the highest percent of people who bike to work are all in Northern California. Moreover, it is facinating that out of these top five cities, four of them (Davis, Berkeley, Santa Cruz) are home to a UC school or distinct private school (Stanford in Palo Alto). Menlo Park, home to Facebook and in the heart of Silicon Valley, is distinct from these other four cities in that it is not an academic hub.

## # A tibble: 15,537 x 8
##    group state   mean_percent  long   lat order region  subregion
##    <dbl> <chr>          <dbl> <dbl> <dbl> <int> <chr>   <chr>    
##  1     1 Alabama        0.235 -87.5  30.4     1 alabama <NA>     
##  2     1 Alabama        0.235 -87.5  30.4     2 alabama <NA>     
##  3     1 Alabama        0.235 -87.5  30.4     3 alabama <NA>     
##  4     1 Alabama        0.235 -87.5  30.3     4 alabama <NA>     
##  5     1 Alabama        0.235 -87.6  30.3     5 alabama <NA>     
##  6     1 Alabama        0.235 -87.6  30.3     6 alabama <NA>     
##  7     1 Alabama        0.235 -87.6  30.3     7 alabama <NA>     
##  8     1 Alabama        0.235 -87.6  30.3     8 alabama <NA>     
##  9     1 Alabama        0.235 -87.7  30.3     9 alabama <NA>     
## 10     1 Alabama        0.235 -87.8  30.3    10 alabama <NA>     
## # ... with 15,527 more rows
…
